Lukas Jürgensmeier - keepar
…
You can obtain the ASINs matching your filter conditions by sending the .json file as a payload to the API. First, you read the .json file into your environment.

payload <- readr::read_file(
  "data/1-getASIN/product-finder-api-query.json"
  )

Second, define the marketplace for which you want to get to get ASINs and call the API through get_product_asin().

domain_id <- 1
product_asin <- get_product_asin(api_key, domain_id, payload)

This call will yield a data frame containing the first 100 ASINs that match your filter criteria (in ascending order by sales rank, i.e., the best-selling product comes first).

product_asin
#> # A tibble: 100 x 1
#>    asin      
#>    <chr>     
#>  1 B07L6BBW2Q
#>  2 B07PB9GVPT
#>  3 B07SMV3L4V
#>  4 B007FPX8Z2
#>  5 B01DW6S72Q
#>  6 B07GMSSXN5
#>  7 B008C2F0HQ
#>  8 B00DS4EY4S
#>  9 B07HCQTDK7
#> 10 B00ILCA9G4
#> # i 90 more rows
…
Once we have loaded all the raw data into our workspace, we can extract the relevant data from it.

We do so with a suite of functions, explained in the following subsections. These subsections start with extracting the product metadata and then discuss the extraction of time-varying data, such as prices and sales ranks.

2.4.1 Product Metadata

2.4.1.1 tidy_product extracts most product-level metadata.

The function tidy_product generates a tidy data frame that includes most of the product metadata in the raw data. Every row corresponds to a single product, identified through its ASIN. This data frame includes, for example, information on the product title, its manufacturer, brand, and rootCategory (i.e., the broadest category of the product).

df_products <- map_dfr(lst_json, tidy_product)
df_products
#> # A tibble: 247 x 54
#>    asin       title          domainId lastUpdate          imagesCSV manufacturer
#>    <chr>      <chr>             <int> <dttm>              <chr>     <chr>       
#>  1 B07L6BBW2Q Rubber Duck B~        1 2024-04-30 13:02:00 71wbjkVH~ LOUHUA      
#>  2 B07PB9GVPT Happy Trees D~        1 2024-04-30 13:02:00 511Wd7ip~ Lanterns ho~
#>  3 B07SMV3L4V 50-Pieces Flo~        1 2024-04-30 13:02:00 51Fm8Kle~ Guaren us   
#>  4 B007FPX8Z2 Rubber Duck N~        1 2024-04-30 13:02:00 41dQMuVN~ Duckshop    
#>  5 B01DW6S72Q Rubber Duck -~        1 2024-04-30 13:02:00 41DO0edx~ Duckshop    
#>  6 B07GMSSXN5 Teacher Rubbe~        1 2024-04-30 13:02:00 41fcj9xb~ Ducks in th~
#>  7 B008C2F0HQ Waddlers Rubb~        1 2024-04-30 13:02:00 61w5aV1h~ Assurance I~
#>  8 B00DS4EY4S Rubber Duck D~        1 2024-04-30 13:02:00 61avUzkp~ Duckshop    
#>  9 B07HCQTDK7 Golfer Rubber~        1 2024-04-30 13:02:00 71NYdXNO~ Schnabels   
#> 10 B00ILCA9G4 Dozen Classic~        1 2024-04-30 13:02:00 61e7+eEb~ <NA>        
#> # i 237 more rows
#> # i 48 more variables: lastPriceChange <dttm>, rootCategory <dbl>,
#> #   productType <int>, type <chr>, hasReviews <lgl>, trackingSince <dttm>,
#> #   brand <chr>, productGroup <chr>, partNumber <chr>, model <chr>,
#> #   color <chr>, size <chr>, packageHeight <int>, packageLength <int>,
#> #   packageWidth <int>, packageWeight <int>, packageQuantity <int>,
#> #   isAdultProduct <lgl>, isEligibleForTradeIn <lgl>, ...

2.4.1.2 get_product_category_tree extracts products’ category trees

Each product can be listed in multiple categories, organized in a hierarchical category tree. get_product_category_tree extracts this category tree:

df_category_tree <- map_dfr(lst_json, get_product_category_tree)
df_category_tree
#> # A tibble: 739 x 4
#>    asin           catId catName             catDepth
#>    <chr>          <int> <chr>                  <int>
#>  1 B07L6BBW2Q 165793011 Toys & Games               1
#>  2 B07L6BBW2Q 196601011 Baby & Toddler Toys        2
#>  3 B07L6BBW2Q 330390011 Bath Toys                  3
#>  4 B07PB9GVPT 165793011 Toys & Games               1
#>  5 B07PB9GVPT 196601011 Baby & Toddler Toys        2
#>  6 B07PB9GVPT 330390011 Bath Toys                  3
#>  7 B07SMV3L4V 165793011 Toys & Games               1
#>  8 B07SMV3L4V 196601011 Baby & Toddler Toys        2
#>  9 B07SMV3L4V 330390011 Bath Toys                  3
#> 10 B007FPX8Z2 165793011 Toys & Games               1
#> # i 729 more rows
…
2.4.2 Historical Event Data

Beyond obtaining the current metadata, we are interested in the historical development of a product’s characteristics. We can obtain such data through the following functions.

Importantly, all historical data is in an event data format. This format means that there will only be a new row in the data frame if the respective information has changed. This format differs from the typical data we use in social sciences, which is often evenly-spaced panel data with a single observation on each day or week. In contrast, event data features an irregularly spaced frequency and can have multiple observations per day or none for weeks, depending on how frequently the underlying product characteristics have changed.

2.4.2.1 get_product_price_buybox extracts the product’s buy box price history

Every product on Amazon can have multiple sellers competing to sell the same product. Hence, every product can have various offers. Amazon simplifies the process of consumers picking a seller by recommending a default seller through the buy box. In analyses, it often makes sense to focus on the offer that wins the buy box because most customers buy from this recommended seller (Zeibak 2020; Lanxner 2019).

We now extract one of the most relevant historical product characteristics—the price. More precisely, this is the price of the offer occupying the buy box at the given time.

df_buybox_price <- map_dfr(lst_json, get_product_price_buybox)
df_buybox_price
#> # A tibble: 20,465 x 4
#>    asin       datetime            priceBuybox shippingBuybox
#>    <chr>      <dttm>                    <dbl>          <dbl>
#>  1 B07L6BBW2Q 2019-03-27 23:34:00        13.0              0
#>  2 B07L6BBW2Q 2019-04-24 20:30:00        16.0              0
#>  3 B07L6BBW2Q 2019-04-27 02:04:00        NA               NA
#>  4 B07L6BBW2Q 2019-05-06 01:48:00        13.0              0
#>  5 B07L6BBW2Q 2019-05-14 08:36:00        12.0              0
#>  6 B07L6BBW2Q 2019-05-14 21:20:00        12.0              0
#>  7 B07L6BBW2Q 2019-05-18 14:42:00        12.0              0
#>  8 B07L6BBW2Q 2019-05-19 19:24:00        13.0              0
#>  9 B07L6BBW2Q 2019-05-27 18:52:00        13.0              0
#> 10 B07L6BBW2Q 2019-05-28 19:38:00        13.0              0
#> # i 20,455 more rows
…
Figure 2 already provides rich information on the product. We can see that the prices of rubber ducks vary strongly over time. While the cheapest available price over time is $7.99, the offer peaked at double this price ($15.99) for short durations.

Because the line indicating the price is missing for some dates, we can conclude that the product was not always available—if the price is missing, it implies that no seller won the buy box.

2.4.2.2 get_product_buybox_history extracts the product’s buy box seller history

You can obtain information on which seller won the buy box at which time through get_product_buybox_history. Note that this function only works if you specify build_product_url(..., buybox = 1) such that the raw data includes information on the buy box history.

df_buybox_history <- map_dfr(lst_json, get_product_buybox_history)
df_buybox_history
#> # A tibble: 11,932 x 3
#>    asin       datetime            buyBoxSeller        
#>    <chr>      <dttm>              <chr>               
#>  1 B07L6BBW2Q 2019-03-27 23:34:00 AC5QQUYS4DT2W       
#>  2 B07L6BBW2Q 2019-04-27 02:04:00 noSellerQualifiedBB 
#>  3 B07L6BBW2Q 2019-05-06 01:48:00 AC5QQUYS4DT2W       
#>  4 B07L6BBW2Q 2019-05-14 21:20:00 A2PNVNIOI1WGC       
#>  5 B07L6BBW2Q 2019-05-18 14:42:00 AC5QQUYS4DT2W       
#>  6 B07L6BBW2Q 2019-05-27 18:52:00 A12SR7AJCMRNG9      
#>  7 B07L6BBW2Q 2019-05-30 04:54:00 noSellerOrOutOfStock
#>  8 B07L6BBW2Q 2019-06-05 09:24:00 AC5QQUYS4DT2W       
#>  9 B07L6BBW2Q 2019-06-27 15:58:00 A3G1S0O0LEO4WI      
#> 10 B07L6BBW2Q 2019-07-07 11:52:00 AC5QQUYS4DT2W       
#> # i 11,922 more rows

If you are interested in other prices, you can call get_product_price_amazon (for the price offered by Amazon as the seller) and get_product_price_marketplace (for the lowest non-Amazon offer).

2.4.2.3 get_product_sales_rank_reference extracts the sales rank history for the reference category

We can obtain the sales rank history to analyze how well a product has sold. The sales rank is a proxy for sales based on the following simplified logic: Amazon ranks all products by sales for a specific product category. The best-selling product in the category receives the sales rank 1, the second-best-selling product receives sales rank 2, and so on. Hence, the absolute value of the sales rank is only comparable within the same category.

Amazon provides—and Keepa tracks—different sales ranks for the same product. Often, the sales rank for a product’s reference category (also called root category) is useful—the reference category is the broadest available category. Hence, chances are highest that similar products fall into the same reference category, making the products’ sales ranks directly comparable.

You can extract the products’ sales ranks for the reference category through get_product_sales_rank_reference:

df_salesRank <- map_dfr(lst_json, get_product_sales_rank_reference)
df_salesRank
#> # A tibble: 366,810 x 4
#>    asin       datetime            salesRankReference salesRank
#>    <chr>      <dttm>              <chr>                  <int>
#>  1 B07L6BBW2Q 2018-12-27 19:00:00 165793011            4140161
#>  2 B07L6BBW2Q 2018-12-29 22:50:00 165793011             264291
#>  3 B07L6BBW2Q 2019-01-01 19:52:00 165793011             173252
#>  4 B07L6BBW2Q 2019-01-10 09:50:00 165793011              56206
#>  5 B07L6BBW2Q 2019-01-11 03:02:00 165793011              32908
#>  6 B07L6BBW2Q 2019-01-12 15:36:00 165793011              58844
#>  7 B07L6BBW2Q 2019-01-13 18:56:00 165793011              94892
#>  8 B07L6BBW2Q 2019-01-14 01:10:00 165793011             126124
#>  9 B07L6BBW2Q 2019-01-15 13:12:00 165793011              48033
#> 10 B07L6BBW2Q 2019-01-17 04:24:00 165793011             130129
#> # i 366,800 more rows

As you can see from the number of observations in the resulting data frame, the sales rank data is comparatively abundant: 247 products yield 366,810 sales rank observations. Hence, it might be advisable to restrict your observation period to the smallest required time frame.

2.4.2.4 get_product_rating extracts the products’ star rating history

How well did consumers like the product over time? You can answer this question by extracting the products’ rating history, which shows a product’s star rating at historical points in time.

df_rating <- map_dfr(lst_json, get_product_rating)
df_rating
#> # A tibble: 1,937 x 3
#>    asin       datetime            rating
#>    <chr>      <dttm>               <dbl>
#>  1 B07L6BBW2Q 2019-03-27 23:34:00    5  
#>  2 B07L6BBW2Q 2019-04-16 03:12:00    4.5
#>  3 B07L6BBW2Q 2019-04-18 01:26:00    4.6
#>  4 B07L6BBW2Q 2019-05-06 01:48:00    4.7
#>  5 B07L6BBW2Q 2019-05-14 02:40:00    4.3
#>  6 B07L6BBW2Q 2019-05-19 19:24:00    4.2
#>  7 B07L6BBW2Q 2019-05-23 14:08:00    4.3
#>  8 B07L6BBW2Q 2019-05-28 19:38:00    4.4
#>  9 B07L6BBW2Q 2019-06-10 22:24:00    4.5
#> 10 B07L6BBW2Q 2019-06-23 06:12:00    4.1
#> # i 1,927 more rows

2.4.2.5 get_product_reviews extracts the products’ history of number of reviews

Beyond the star rating, you can also extract the number of reviews the given product had at past dates in its history. You can extract this historical information through get_product_reviews:

df_count_reviews <- map_dfr(lst_json, get_product_reviews)
df_count_reviews
#> # A tibble: 9,640 x 3
#>    asin       datetime            countReviews
#>    <chr>      <dttm>                     <int>
#>  1 B07L6BBW2Q 2019-03-27 23:34:00            1
#>  2 B07L6BBW2Q 2019-04-16 03:12:00            2
#>  3 B07L6BBW2Q 2019-04-18 01:26:00            3
#>  4 B07L6BBW2Q 2019-05-06 01:48:00            4
#>  5 B07L6BBW2Q 2019-05-14 02:40:00            5
#>  6 B07L6BBW2Q 2019-05-19 19:24:00            6
#>  7 B07L6BBW2Q 2019-05-20 11:56:00            7
#>  8 B07L6BBW2Q 2019-05-23 14:08:00            8
#>  9 B07L6BBW2Q 2019-05-28 19:38:00            9
#> 10 B07L6BBW2Q 2019-05-30 04:54:00           10
#> # i 9,630 more rows
…
df_grid <- df_price_daily_raw |> 
  construct_ts_grid_by_group()

df_price_daily <- df_grid |> 
  left_join(df_price_daily_raw, by = c("asin", "date")) |>
  fill(c(price , isPriceNa), .direction = "down") |> 
  replace_na(list(isPriceChange = FALSE)) |> 
  mutate(price = if_else(isPriceNa == TRUE, as.numeric(NA), price)) |> 
  select(-c(datetime, priceBuybox, shippingBuybox))

This procedure yields a tidy panel data set with daily frequency including all buy box prices.

df_price_daily
#> # A tibble: 288,037 x 5
#>    date       asin       price isPriceNa isPriceChange
#>    <date>     <chr>      <dbl> <lgl>     <lgl>        
#>  1 2017-05-26 B00001U0RG  9.99 FALSE     TRUE         
#>  2 2017-05-27 B00001U0RG  9.99 FALSE     FALSE        
#>  3 2017-05-28 B00001U0RG  9.99 FALSE     FALSE        
#>  4 2017-05-29 B00001U0RG  9.99 FALSE     FALSE        
#>  5 2017-05-30 B00001U0RG  9.99 FALSE     FALSE        
#>  6 2017-05-31 B00001U0RG  9.99 FALSE     FALSE        
#>  7 2017-06-01 B00001U0RG  9.99 FALSE     FALSE        
#>  8 2017-06-02 B00001U0RG  9.99 FALSE     FALSE        
#>  9 2017-06-03 B00001U0RG  9.99 FALSE     FALSE        
#> 10 2017-06-04 B00001U0RG  9.99 FALSE     FALSE        
#> # i 288,027 more rows
…
